<?xml version="1.0" encoding="UTF-8" standalone="no"?>
<!-- Created with Inkscape (http://www.inkscape.org/) -->

<svg
   width="332.59799"
   height="250"
   viewBox="0 0 87.999887 66.145837"
   version="1.1"
   id="svg5"
   inkscape:version="1.1.2 (0a00cf5339, 2022-02-04)"
   sodipodi:docname="logo.svg"
   inkscape:export-filename="/home/robert/code/BirdCaller/logo.png"
   inkscape:export-xdpi="96"
   inkscape:export-ydpi="96"
   xmlns:inkscape="http://www.inkscape.org/namespaces/inkscape"
   xmlns:sodipodi="http://sodipodi.sourceforge.net/DTD/sodipodi-0.dtd"
   xmlns:xlink="http://www.w3.org/1999/xlink"
   xmlns="http://www.w3.org/2000/svg"
   xmlns:svg="http://www.w3.org/2000/svg">
  <sodipodi:namedview
     id="namedview7"
     pagecolor="#ffffff"
     bordercolor="#666666"
     borderopacity="1.0"
     inkscape:pageshadow="2"
     inkscape:pageopacity="0.0"
     inkscape:pagecheckerboard="0"
     inkscape:document-units="mm"
     showgrid="false"
     inkscape:zoom="0.69575617"
     inkscape:cx="386.6297"
     inkscape:cy="291.76888"
     inkscape:window-width="1920"
     inkscape:window-height="953"
     inkscape:window-x="0"
     inkscape:window-y="32"
     inkscape:window-maximized="1"
     inkscape:current-layer="layer1"
     fit-margin-top="0"
     fit-margin-left="0"
     fit-margin-right="0"
     fit-margin-bottom="0"
     units="px" />
  <defs
     id="defs2">
    <linearGradient
       id="linearGradient39245"
       y2="428.07999"
       gradientUnits="userSpaceOnUse"
       x2="-788.21002"
       y1="428.07999"
       x1="-897.51001">
      <stop
         id="stop38892-5-5-7"
         style="stop-color:#000000;stop-opacity:.91373"
         offset="0" />
    </linearGradient>
    <filter
       id="filter3940"
       inkscape:collect="always"
       color-interpolation-filters="sRGB"
       x="-0.031469001"
       y="-0.067170587"
       width="1.062938"
       height="1.1343412">
      <feGaussianBlur
         id="feGaussianBlur3942"
         stdDeviation="0.5155439"
         inkscape:collect="always" />
    </filter>
    <filter
       id="filter3914"
       inkscape:collect="always"
       color-interpolation-filters="sRGB"
       x="-0.076906266"
       y="-0.077354398"
       width="1.1538125"
       height="1.1547088">
      <feGaussianBlur
         id="feGaussianBlur3916"
         stdDeviation="0.48066416"
         inkscape:collect="always" />
    </filter>
    <filter
       id="filter3722"
       inkscape:collect="always"
       color-interpolation-filters="sRGB"
       x="-0.065288174"
       y="-0.031895989"
       width="1.1305763"
       height="1.063792">
      <feGaussianBlur
         id="feGaussianBlur3724"
         stdDeviation="0.26225093"
         inkscape:collect="always" />
    </filter>
    <linearGradient
       id="linearGradient4154"
       y2="310.79001"
       gradientUnits="userSpaceOnUse"
       x2="114.19"
       y1="327.20999"
       x1="117.94"
       inkscape:collect="always">
      <stop
         id="stop3672"
         style="stop-color:#000000"
         offset="0" />
      <stop
         id="stop3674"
         style="stop-color:#000000;stop-opacity:0"
         offset="1" />
    </linearGradient>
    <filter
       id="filter3524"
       inkscape:collect="always"
       color-interpolation-filters="sRGB"
       x="-0.050548428"
       y="-0.021337296"
       width="1.1010969"
       height="1.0426746">
      <feGaussianBlur
         id="feGaussianBlur3526"
         stdDeviation="0.15691804"
         inkscape:collect="always" />
    </filter>
    <linearGradient
       id="linearGradient4152"
       y2="288.53"
       gradientUnits="userSpaceOnUse"
       x2="143.64999"
       y1="275.26999"
       x1="146.32001"
       inkscape:collect="always">
      <stop
         id="stop3482"
         style="stop-color:#000000"
         offset="0" />
      <stop
         id="stop3484"
         style="stop-color:#000000;stop-opacity:0"
         offset="1" />
    </linearGradient>
    <linearGradient
       id="linearGradient4150"
       y2="294.04001"
       gradientUnits="userSpaceOnUse"
       x2="157.41"
       y1="287.76999"
       x1="157.3"
       inkscape:collect="always">
      <stop
         id="stop3464"
         style="stop-color:#0066cc"
         offset="0" />
      <stop
         id="stop3466"
         style="stop-color:#002448"
         offset="1" />
    </linearGradient>
    <filter
       id="filter3434"
       inkscape:collect="always"
       color-interpolation-filters="sRGB"
       x="-0.041322837"
       y="-0.036173218"
       width="1.0826457"
       height="1.0723464">
      <feGaussianBlur
         id="feGaussianBlur3436"
         stdDeviation="0.25306181"
         inkscape:collect="always" />
    </filter>
    <linearGradient
       id="linearGradient4148"
       y2="291.79001"
       gradientUnits="userSpaceOnUse"
       x2="147.39999"
       y1="296.67999"
       x1="148.55"
       inkscape:collect="always">
      <stop
         id="stop3456"
         style="stop-color:#000000"
         offset="0" />
      <stop
         id="stop3458"
         style="stop-color:#ffffff;stop-opacity:0"
         offset="1" />
    </linearGradient>
    <linearGradient
       id="linearGradient4146"
       y2="286.57001"
       gradientUnits="userSpaceOnUse"
       x2="147.58"
       y1="278.35999"
       x1="147.85001"
       inkscape:collect="always">
      <stop
         id="stop3472"
         style="stop-color:#595959"
         offset="0" />
      <stop
         id="stop3474"
         style="stop-color:#f3f3f3"
         offset="1" />
    </linearGradient>
    <linearGradient
       id="linearGradient4144"
       y2="262.20999"
       xlink:href="#linearGradient3332"
       gradientUnits="userSpaceOnUse"
       x2="153.78"
       y1="257.48001"
       x1="140.3"
       inkscape:collect="always" />
    <filter
       id="filter3386"
       inkscape:collect="always"
       color-interpolation-filters="sRGB"
       x="-0.043697971"
       y="-0.023341084"
       width="1.0873959"
       height="1.0466822">
      <feGaussianBlur
         id="feGaussianBlur3388"
         stdDeviation="0.38308556"
         inkscape:collect="always" />
    </filter>
    <linearGradient
       id="linearGradient3332"
       inkscape:collect="always">
      <stop
         id="stop3334"
         style="stop-color:#000000"
         offset="0" />
      <stop
         id="stop3336"
         style="stop-color:#000000;stop-opacity:0"
         offset="1" />
    </linearGradient>
    <linearGradient
       id="linearGradient4142"
       y2="277.14001"
       xlink:href="#linearGradient3332"
       gradientUnits="userSpaceOnUse"
       x2="161.35001"
       y1="269.35999"
       x1="147.85001"
       inkscape:collect="always" />
    <filter
       id="filter3648"
       height="1.0475553"
       width="1.4334848"
       color-interpolation-filters="sRGB"
       y="-0.023777647"
       x="-0.2167424"
       inkscape:collect="always">
      <feGaussianBlur
         id="feGaussianBlur3650"
         stdDeviation="0.30524554"
         inkscape:collect="always" />
    </filter>
    <filter
       id="filter3836"
       height="1.1262326"
       width="1.2296273"
       color-interpolation-filters="sRGB"
       y="-0.063116315"
       x="-0.11481366"
       inkscape:collect="always">
      <feGaussianBlur
         id="feGaussianBlur3838"
         stdDeviation="0.25785234"
         inkscape:collect="always" />
    </filter>
    <linearGradient
       id="linearGradient4140"
       y2="307.17001"
       gradientUnits="userSpaceOnUse"
       x2="121.78"
       y1="301.32001"
       x1="119.87"
       inkscape:collect="always">
      <stop
         id="stop3730"
         style="stop-color:#000000"
         offset="0" />
      <stop
         id="stop3732"
         style="stop-color:#000000;stop-opacity:0"
         offset="1" />
    </linearGradient>
    <linearGradient
       id="linearGradient4138"
       y2="284.66"
       gradientUnits="userSpaceOnUse"
       x2="124.11"
       y1="255.28"
       x1="109.9"
       inkscape:collect="always">
      <stop
         id="stop3654"
         style="stop-color:#000000"
         offset="0" />
      <stop
         id="stop3656"
         style="stop-color:#ffffff"
         offset="1" />
    </linearGradient>
    <linearGradient
       id="linearGradient4136"
       y2="292.57999"
       gradientUnits="userSpaceOnUse"
       x2="96.582001"
       y1="284.14999"
       x1="96.582001"
       inkscape:collect="always">
      <stop
         id="stop3662"
         style="stop-color:#070707"
         offset="0" />
      <stop
         id="stop3664"
         style="stop-color:#ffffff;stop-opacity:0"
         offset="1" />
    </linearGradient>
    <filter
       id="filter4113"
       inkscape:collect="always"
       color-interpolation-filters="sRGB"
       x="-0.046516889"
       y="-0.047784258"
       width="1.0930338"
       height="1.0955685">
      <feGaussianBlur
         id="feGaussianBlur4115"
         stdDeviation="0.86240544"
         inkscape:collect="always" />
    </filter>
  </defs>
  <g
     inkscape:label="Ebene 1"
     inkscape:groupmode="layer"
     id="layer1"
     transform="translate(-2.5422443,-41.000573)">
    <g
       id="g224"
       inkscape:export-filename="/home/robert/code/BirdCaller/logo.png"
       inkscape:export-xdpi="96"
       inkscape:export-ydpi="96"
       transform="matrix(-0.44345656,0,0,0.44345656,92.769235,22.8186)">
      <g
         id="g39232"
         transform="matrix(0.15464367,0,0,0.15464367,67.954833,83.965333)">
        <path
           id="path31178"
           style="fill:#1a1a1a;fill-opacity:0.74405;stroke:#000000;stroke-width:5.5533;stroke-linecap:square;stroke-dashoffset:64.401;stroke-opacity:0.093567"
           inkscape:connector-curvature="0"
           d="m 320.34,624.59 c 11.023,-14.204 19.973,-30.2 30.528,-44.804 9.5553,-13.221 11.331,-14.474 22.408,-26.72 17.398,-19.47 36.589,-36.67 56.716,-52.48 19.042,-13.146 38.193,-30.251 61.537,-30.641 2.9729,-0.0503 5.9362,0.38952 8.9043,0.58451 24.501,3.749 45.957,17.67 66.837,31.527 10.085,7.6291 20.822,14.287 30.664,22.318 4.3336,3.5359 7.7072,6.985 11.74,10.909 11.092,10.96 20.146,24.207 28.037,38.111 1.5411,2.6562 3.0823,5.3123 4.6234,7.9684 l -28.837,18.735 c -1.5295,-2.6652 -3.059,-5.3301 -4.5885,-7.9953 -7.8924,-13.505 -17.163,-26.064 -27.759,-37.066 -12.876,-12.488 -27.175,-22.73 -41.42,-33.169 -20.415,-14.044 -41.929,-27.293 -66.313,-29.617 -8.0656,0.0397 -14.804,0.3999 -22.559,3.0777 -2.1695,0.74913 -8.2722,4.0449 -6.3934,2.6241 5.3274,-4.0284 36.284,-23.818 16.618,-10.971 -20.799,15.63 -40.59,32.91 -58.455,52.58 -10.477,11.404 -13.17,13.664 -22.252,26.077 -10.247,14.004 -18.55,29.589 -28.558,43.791 l -31.478,15.16 z" />
        <path
           id="path28681-5"
           style="fill:#ff6600;fill-opacity:0.74405;stroke:#000000;stroke-width:6.44;stroke-linecap:square;stroke-dashoffset:64.401;stroke-opacity:0.093567"
           inkscape:connector-curvature="0"
           d="m -51.304,455.49 c -1.1634,-6.4894 84.495,-43.289 86.064,-48.204 1.5683,-4.9151 14.551,-144.39 19.628,-143.92 5.0768,0.47402 97.709,145.05 100.71,150.01 2.999,4.9656 -2.0368,55.225 -5.7355,59.234 -3.6988,4.0096 -89.287,-11.271 -94.577,-10.612 -5.2901,0.65934 -104.92,-0.0215 -106.09,-6.5109 z"
           transform="matrix(1.4496,-0.47604,0.47604,1.4496,-74.5,-284.99)" />
        <path
           id="path28681-8-1"
           style="fill:#ff6600;fill-opacity:0.74405;stroke:#000000;stroke-width:6.44;stroke-linecap:square;stroke-dashoffset:64.401;stroke-opacity:0.093567"
           inkscape:connector-curvature="0"
           d="m -51.304,455.49 c -1.1634,-6.4894 84.495,-43.289 86.064,-48.204 1.5683,-4.9151 14.551,-144.39 19.628,-143.92 5.0768,0.47402 97.709,145.05 100.71,150.01 2.999,4.9656 -2.0368,55.225 -5.7355,59.234 -3.6988,4.0096 -89.287,-11.271 -94.577,-10.612 -5.2901,0.65934 -104.92,-0.0215 -106.09,-6.5109 z"
           transform="matrix(-0.14358,-0.26,0.57358,-0.24637,104.25,764.53)" />
        <path
           id="path39021-5"
           style="fill:#0c000c;fill-opacity:0.96237;stroke:#000000;stroke-width:6.44;stroke-linecap:square;stroke-dashoffset:64.401;stroke-opacity:0.94086"
           inkscape:connector-curvature="0"
           d="m -665.71,1049.5 a 171.43,177.14 0 1 1 -342.86,0 171.43,177.14 0 1 1 342.86,0 z"
           transform="matrix(1.5257,0,0,1.5257,1745.5,-1318)" />
        <path
           id="path39023-2"
           style="fill:#0c000c;fill-opacity:0.96237;stroke:#000000;stroke-width:6.44;stroke-linecap:square;stroke-dashoffset:64.401;stroke-opacity:0.94086"
           inkscape:connector-curvature="0"
           d="m -681.57,118.54 c -8.746,19.054 -421.55,-32.079 -426.48,-48.481 -4.9277,-16.402 215.86,-219.89 232.59,-211.99 16.733,7.9016 202.64,241.41 193.89,260.47 z"
           transform="matrix(-0.13076,-0.89838,1.023,-0.11483,645.52,-494.19)" />
        <g
           id="g38937-6-7"
           transform="matrix(0.52159,0,0,0.52976,-78.953,80.604)">
          <path
             id="path31180-4-2"
             style="fill:#1a1a1a;fill-opacity:0.74405;stroke:#000000;stroke-width:6.44;stroke-linecap:square;stroke-dashoffset:64.401;stroke-opacity:0.093567"
             inkscape:connector-curvature="0"
             d="m 1408.6,683.79 a 248.57,220 0 1 1 -497.14,0 248.57,220 0 1 1 497.14,0 z"
             transform="translate(-202.86,-400)" />
          <g
             id="g38896-0-1-9"
             transform="matrix(1.1321,0,0,1.0127,1880.7,-117.02)">
            <path
               id="path38820-7-7-7"
               style="fill:#ff6600;fill-opacity:0.74405;stroke:#000000;stroke-width:6.44;stroke-linecap:square;stroke-dashoffset:64.401;stroke-opacity:0.94086"
               inkscape:connector-curvature="0"
               d="m -742.86,419.51 a 105.715,118.57561 0 1 1 -211.43,0 105.715,118.57561 0 1 1 211.43,0 z"
               transform="matrix(1,0,0,0.92637,0,39.617)" />
            <path
               id="path38822-3-0-6"
               style="fill:#0c000c;fill-opacity:0.96237;stroke:url(#linearGradient39245);stroke-width:6.44;stroke-linecap:square;stroke-dashoffset:64.401;stroke-opacity:0.96774"
               inkscape:connector-curvature="0"
               d="m -791.43,428.08 a 51.43,44.286861 0 1 1 -102.86,0 51.43,44.286861 0 1 1 102.86,0 z"
               transform="matrix(1.2045,0,0,1.3665,169.51,-154.04)" />
          </g>
        </g>
        <path
           id="path28681-8-3"
           style="fill:#ff6600;fill-opacity:0.74405;stroke:#000000;stroke-width:6.44;stroke-linecap:square;stroke-dashoffset:64.401;stroke-opacity:0.093567"
           inkscape:connector-curvature="0"
           d="m -51.304,455.49 c -1.1634,-6.4894 84.495,-43.289 86.064,-48.204 1.5683,-4.9151 14.551,-144.39 19.628,-143.92 5.0768,0.47402 97.709,145.05 100.71,150.01 2.999,4.9656 -2.0368,55.225 -5.7355,59.234 -3.6988,4.0096 -89.287,-11.271 -94.577,-10.612 -5.2901,0.65934 -104.92,-0.0215 -106.09,-6.5109 z"
           transform="matrix(-0.16872,-0.24443,0.54625,-0.30218,412.36,758.51)" />
      </g>
      <g
         id="layer1-6"
         inkscape:label="Camada 1"
         transform="matrix(1.5287465,0,0,1.5287465,-435.72541,-419.38745)">
        <path
           id="path2383"
           style="fill:#ffffff;stroke:#00b3ff;stroke-width:3.107"
           d="m 320,304.11 c -16.64,0 -30.14,9.93 -30.14,22.17 0,12.24 13.5,22.17 30.14,22.17 3.51,0 6.87,-0.44 10,-1.25 l 10.1,8.9 -4.4,-10.9 c 8.66,-3.89 14.44,-10.91 14.44,-18.92 0,-12.24 -13.5,-22.17 -30.14,-22.17 z"
           inkscape:export-ydpi="150"
           sodipodi:nodetypes="csscccsc"
           inkscape:export-filename="C:\Users\ASantos\Desktop\SocialWish\Logotipo\ico_megafone.png"
           inkscape:connector-curvature="0"
           inkscape:export-xdpi="150" />
        <g
           id="g4117"
           inkscape:export-ydpi="150"
           inkscape:export-xdpi="150"
           inkscape:export-filename="C:\Users\ASantos\Desktop\SocialWish\Logotipo\ico_megafone.png"
           transform="matrix(1.1772,0,0,1.1772,168.5,114.04)">
          <path
             id="path3983"
             style="opacity:0.51812;fill:#000000;fill-rule:evenodd;filter:url(#filter4113)"
             inkscape:connector-curvature="0"
             d="m 141.18,161.02 c -0.45,0.01 -0.71,0.09 -0.71,0.09 -4.8,1.23 -6.05,8.54 -6.66,9.06 -0.61,0.52 -3.58,2.56 -7.53,4.63 -3.96,2.06 -12.7,4.63 -15.38,6.06 -0.18,0.37 -0.32,0.74 -0.43,1.09 l -1.85,0.75 c 0,0 -1.67,2.07 -0.69,5.38 0.75,2.52 3.1,3.34 3.1,3.34 l 1.81,-0.31 c 0.64,0.64 1.53,1.12 1.53,1.12 l 5.81,-1.28 c 0,0 -0.23,1.44 -0.28,2 -0.04,0.57 0.82,0.77 1.03,2.82 0.22,2.04 -0.34,6.77 -0.18,7.71 0.16,0.95 1.65,0.85 1.65,0.85 h 5 c 0,0 1,-1.55 1.85,-2.31 0.4,-0.88 0.28,-2.78 0.18,-3.04 -0.25,-0.65 -1.6,-1.25 -2.28,-1.96 v -1.22 c 0.28,-0.64 0.74,-1.31 0.6,-1.69 -0.07,-0.19 -0.32,-0.52 -0.6,-0.94 l -0.03,-3.81 c 3.12,0.31 9.83,1.52 12.44,3.84 2.84,2.53 5.8,3.9 6.66,4.03 0.85,0.14 8.37,-1.29 5.06,-19.9 -2.69,-15.12 -8.14,-16.37 -10.1,-16.31 z" />
          <g
             id="g3944"
             transform="matrix(0.63379,-0.1081,0.1081,0.63379,14.271,11.861)">
            <path
               id="path3268"
               inkscape:connector-curvature="0"
               sodipodi:nodetypes="ccsccc"
               style="fill:url(#linearGradient4136);fill-rule:evenodd;stroke:#333333;stroke-width:1px"
               d="m 102.9,282.23 -6.124,1.36 c 0,0 -3.091,2.74 -2.452,8.07 0.489,4.07 3.886,5.91 3.886,5.91 h 4.47 z" />
            <path
               id="path3262"
               inkscape:connector-curvature="0"
               sodipodi:nodetypes="cssscssscccsssccscssc"
               style="fill:url(#linearGradient4138);fill-rule:evenodd;stroke:#333333;stroke-width:1px"
               d="m 151.26,258.8 c 0,0 12.14,-1.71 12.35,27.69 0.22,29.4 -11.71,29.61 -12.99,29.19 -1.28,-0.43 -5.47,-3.26 -9.16,-7.88 -3.41,-4.27 -13.42,-7.89 -18.11,-9.16 -3.62,1.91 -0.43,6.39 -0.21,7.45 0.21,1.07 -2.56,2.98 -1.71,4.26 0.85,1.28 2.77,2.55 2.98,3.62 0.09,0.42 -0.21,3.37 -1.06,4.61 -1.5,0.95 -3.41,3.06 -3.41,3.06 l -7.67,-1.28 c 0,0 -2.36,-0.24 -2.36,-1.73 0,-1.49 2.11,-8.59 2.33,-11.78 0.21,-3.2 -1.03,-3.74 -0.82,-4.59 0.21,-0.86 0.91,-2.99 0.91,-2.99 l -9.22,0.43 c 0,0 -1.92,-1.49 -2.56,-2.98 -0.635,-1.49 -4.683,-8.52 0.22,-15.34 4.47,-1.49 18.53,-3.2 25.14,-5.33 6.6,-2.13 11.71,-4.47 12.78,-5.11 1.06,-0.64 4.9,-11.5 12.57,-12.14 z" />
            <path
               id="path3726"
               inkscape:connector-curvature="0"
               sodipodi:nodetypes="cscsscsc"
               style="fill:url(#linearGradient4140);fill-rule:evenodd;filter:url(#filter3836)"
               d="m 122.76,298.56 c 0,0 -4.14,1.38 -4.67,2.69 l -0.52,1.32 c 0,0 0.59,2.76 1.25,3.61 0.66,0.86 0.85,1.58 0.92,2.11 0.06,0.52 3.22,-1.84 3.22,-1.84 0,0 -1.81,-2.97 -1.79,-4.84 0.02,-1.57 1.59,-2.92 1.59,-3.05 z" />
            <path
               id="path3264"
               inkscape:connector-curvature="0"
               sodipodi:nodetypes="cssscc"
               style="fill:none;stroke:#333333;stroke-width:0.7"
               d="m 123.43,298.42 c 0,0 -5.83,1.92 -5.83,4.26 0,2.35 2.34,4.69 2.34,6.18 0,1.49 -1.92,3.2 -1.06,4.26 0.85,1.07 2.62,2.39 2.4,3.67 l -1.62,4.64" />
            <path
               id="path3275"
               style="fill:#000000;filter:url(#filter3648)"
               inkscape:connector-curvature="0"
               d="m 139.5,271.93 c -2.1,4.31 -3.38,9.63 -3.38,15.41 0,5.77 1.25,11.09 3.35,15.4 -1.19,-4.62 -1.85,-9.86 -1.85,-15.4 0,-5.56 0.69,-10.78 1.88,-15.41 z" />
            <path
               id="path3284"
               inkscape:connector-curvature="0"
               sodipodi:nodetypes="cscsscc"
               style="opacity:0.67391;fill:url(#linearGradient4142);filter:url(#filter3386)"
               d="m 152.89,262.19 c -5.57,0 -10.95,10.9 -10.95,24.88 0,5.79 0.79,11.11 2.09,15.37 -0.32,-2.05 -0.51,-4.25 -0.51,-6.53 0,-11.45 5.27,-20.28 10.67,-20.28 3.87,0 7.2,4.75 8.79,11.65 -0.2,-15.89 -4.56,-25.09 -10.09,-25.09 z" />
            <path
               id="path3390"
               style="fill:url(#linearGradient4144);filter:url(#filter3386)"
               d="m 152.89,262.19 c -5.57,0 -13.31,10.04 -13.31,24.02 0,5.79 0.8,11.11 2.1,15.37 -0.32,-2.05 4.43,-4.33 4.43,-6.6 0,-11.45 -0.04,-27.24 7.32,-28.17 6.44,-0.82 9.89,7.62 11.48,14.52 -0.19,-15.89 -6.49,-19.14 -12.02,-19.14 z"
               sodipodi:nodetypes="cscsscc"
               inkscape:connector-curvature="0"
               transform="matrix(0.72656,0.018161,0.01835,-0.71905,36.279,497.65)" />
            <path
               id="path3280"
               inkscape:connector-curvature="0"
               sodipodi:nodetypes="ccccc"
               style="fill:url(#linearGradient4146);fill-rule:evenodd"
               d="m 142.59,279.39 13.78,3.91 0.43,9.58 -13.85,5.76 c -0.88,-4.53 -1.75,-12.76 -0.36,-19.25 z" />
            <path
               id="path3290"
               inkscape:connector-curvature="0"
               sodipodi:nodetypes="ccccc"
               style="fill:url(#linearGradient4148);fill-rule:evenodd;filter:url(#filter3434)"
               d="m 142.78,281.41 11.78,3.75 2.24,7.29 -13.85,5.75 c -0.76,-3.85 -1.37,-11.28 -0.17,-16.79 z" />
            <ellipse
               id="path3282"
               style="fill:url(#linearGradient4150)"
               transform="matrix(0.85124,0,0,0.89379,23.024,30.789)"
               cx="156.47615"
               cy="287.77008"
               rx="2.4499328"
               ry="5.1129036" />
            <path
               id="path3270"
               style="fill:#1a1a1a"
               inkscape:connector-curvature="0"
               d="m 152.42,261.98 c -6.29,0 -11.4,11.4 -11.4,25.46 0,14.05 5.11,25.46 11.4,25.46 2.44,0 4.71,-1.73 6.56,-4.65 -1.67,2.39 -3.64,3.8 -5.76,3.8 -5.98,0 -10.83,-11.03 -10.83,-24.61 0,-13.58 4.85,-24.59 10.83,-24.59 2.12,0 4.09,1.42 5.76,3.81 -1.85,-2.93 -4.12,-4.68 -6.56,-4.68 z" />
            <path
               id="path3478"
               inkscape:connector-curvature="0"
               sodipodi:nodetypes="ccsccsc"
               style="fill:url(#linearGradient4152);fill-rule:evenodd;filter:url(#filter3524)"
               d="m 142.54,279.71 6.77,1.88 c 0,0 -3.33,2 -2.66,7.11 0.67,5.11 2.55,6.11 2.55,6.11 l -6.99,2.55 c 0,0 -0.45,-5.22 -0.33,-7.77 0.11,-2.56 0.66,-9.66 0.66,-9.88 z" />
            <path
               id="path3668"
               inkscape:connector-curvature="0"
               sodipodi:nodetypes="csscczssscssc"
               style="fill:url(#linearGradient4154);fill-rule:evenodd;filter:url(#filter3722)"
               d="m 112.32,301.34 c 0,0 0.85,2.72 0.85,4.59 0,1.88 -2.38,11.58 -2.38,12.26 0,0.68 0.62,1.07 0.62,1.07 l 7.73,1.31 c 0,0 0.85,-2.31 1.01,-3.12 0.17,-0.81 0.34,-0.87 0.26,-1.26 -0.14,-0.75 -0.84,-1.42 -1.85,-2.21 -0.86,-0.66 -0.9,-1.91 -0.39,-2.59 0.51,-0.68 0.62,-3.76 0.62,-3.76 0,0 -2.04,-2.38 -2.04,-3.74 0,-1.36 -0.85,-2.38 -0.17,-2.89 0.68,-0.51 -3.92,0.34 -4.26,0.34 z" />
            <path
               id="path3840"
               inkscape:connector-curvature="0"
               sodipodi:nodetypes="ccsssc"
               style="opacity:0.20014;fill:#000000;fill-rule:evenodd;filter:url(#filter3914)"
               d="m 124.1,297.47 c 5,1.79 10,3.24 15,6.8 0,0 -3.2,-5.55 -3.47,-7.77 -0.28,-2.22 -0.98,-6.25 -0.7,-7.08 0.28,-0.84 -1.01,6.97 -2.78,7.77 -3.05,1.39 -7.77,0.42 -8.05,0.28 z" />
            <path
               id="path3918"
               inkscape:connector-curvature="0"
               sodipodi:nodetypes="cssssccszcsc"
               style="opacity:0.4529;fill:#000000;fill-rule:evenodd;filter:url(#filter3940)"
               d="m 100.5,284.42 c 0,0 0.7,-2.22 1.39,-2.5 0.7,-0.28 14.99,-2.77 15.83,-2.91 0.83,-0.14 8.33,-1.81 9.3,-2.09 0.97,-0.27 7.91,-2.77 8.61,-3.19 0.69,-0.42 3.88,-2.08 3.88,-2.08 0,0 -2.22,9.99 -2.91,13.33 -0.88,-3.5 -0.97,-5.7 -3.75,-6.39 -5.07,-1.27 -11.13,0.8 -15.55,1.53 -4.41,0.73 -14.57,2.77 -14.57,2.77 0,0 -2.36,4.72 -2.5,6.81 -0.14,2.08 0.14,-5.28 0.27,-5.28 z" />
          </g>
        </g>
      </g>
    </g>
  </g>
</svg>
